{
  "$schema": "http://json-schema.org/draft-07/schema#",
  "title": "GitLab data/features.yml",
  "description": "Internal file that documents features and competitors",
  "definitions": {
    "feature": {
      "type": "object",
      "properties": {
        "title": {
          "type": "string"
        },
        "description": {
          "type": "string"
        },
        "category": {
          "type": "array"
        },
        "works_by_default": {
          "type": "object",
          "properties": {
            "all": {
              "type": ["string", "boolean"],
              "enum": [true, false, "true", "false", "config_required", "install_required", "not_applicable"]
            },
            "gitlab_com": {
              "type": ["string", "boolean"],
              "enum": [true, false, "true", "false", "config_required", "install_required", "not_applicable"]
            },
            "omnibus": {
              "type": ["string", "boolean"],
              "enum": [true, false, "true", "false", "config_required", "install_required", "not_applicable"]
            },
            "chart": {
              "type": ["string", "boolean"],
              "enum": [true, false, "true", "false", "config_required", "install_required", "not_applicable"]
            },
            "source": {
              "type": ["string", "boolean"],
              "enum": [true, false, "true", "false", "config_required", "install_required", "not_applicable"]
            },
            "gdk": {
              "type": ["string", "boolean"],
              "enum": [true, false, "true", "false", "config_required", "install_required", "not_applicable"]
            },
            "note": {
              "type": "string"
            }
          },
          "additionalProperties": false
        }
      },
      "required": ["title", "description"]
    }
  },
  "type": "object",
  "properties": {
    "features": {
      "type": "array",
      "items": {
        "allOf": [
          { "$ref": "#/definitions/feature" }
        ]
      }
    }
  }
}
